{
    "providers": [
        {
            "type": "ttf",
            "file": "pokemoncobbled:schul_vokal_dotless.ttf",
            "shift": [0, 0],
            "size": 20.0,
            "oversample": 6.0
        }
    ]
}