{
	"credit": "Made with Blockbench",
	"texture_size": [32, 32],
	"textures": {
		"0": "pokemoncobbled:items/master_ball"
	},
	"elements": [
		{
			"from": [-4, 0, -4],
			"to": [4, 4, 4],
			"rotation": {"angle": 0, "axis": "y", "origin": [0, 2, -3]},
			"faces": {
				"north": {"uv": [4, 4, 8, 6], "texture": "#0"},
				"east": {"uv": [0, 4, 4, 6], "texture": "#0"},
				"south": {"uv": [12, 4, 16, 6], "texture": "#0"},
				"west": {"uv": [8, 4, 12, 6], "texture": "#0"},
				"up": {"uv": [8, 4, 4, 0], "texture": "#0"},
				"down": {"uv": [12, 0, 8, 4], "texture": "#0"}
			}
		},
		{
			"from": [-4, 4, -4],
			"to": [4, 8, 4],
			"rotation": {"angle": 0, "axis": "x", "origin": [0, 4, 4]},
			"faces": {
				"north": {"uv": [4, 10, 8, 12], "texture": "#0"},
				"east": {"uv": [0, 10, 4, 12], "texture": "#0"},
				"south": {"uv": [12, 10, 16, 12], "texture": "#0"},
				"west": {"uv": [8, 10, 12, 12], "texture": "#0"},
				"up": {"uv": [8, 10, 4, 6], "texture": "#0"},
				"down": {"uv": [12, 6, 8, 10], "texture": "#0"}
			}
		}
	],
	"display": {
		"thirdperson_righthand": {
			"rotation": [0, 37, 0],
			"translation": [4.25, 2, 1.5],
			"scale": [0.5, 0.5, 0.5]
		},
		"thirdperson_lefthand": {
			"rotation": [0, 41, 0],
			"translation": [-2.25, 1.25, 7],
			"scale": [0.5, 0.5, 0.5]
		},
		"firstperson_righthand": {
			"rotation": [-88, 120, 88],
			"translation": [9.25, -0.25, -9.5],
			"scale": [0.75, 0.75, 0.75]
		},
		"firstperson_lefthand": {
			"rotation": [-88, 120, 88],
			"translation": [12, -0.5, 2.75],
			"scale": [0.75, 0.75, 0.75]
		},
		"ground": {
			"translation": [6.25, 2, 8.25],
			"scale": [0.75, 0.75, 0.75]
		},
		"gui": {
			"rotation": [21, -134.5, -1],
			"translation": [-11.5, 3.6, 0]
		},
		"head": {
			"translation": [8.25, 14.25, 8]
		},
		"fixed": {
			"translation": [7.5, 4, 3.5]
		}
	},
	"groups": [
		{
			"name": "pokeball",
			"origin": [0, 0, 0],
			"color": 0,
			"children": [
				0,
				{
					"name": "pokeball_lid",
					"origin": [0, 4, 4],
					"color": 0,
					"children": [1]
				}
			]
		}
	]
}