{
	"format_version": "1.8.0",
	"animations": {
		"animation.beedrill.air_idle": {
			"loop": true,
			"animation_length": 19.95,
			"bones": {
				"body": {
					"rotation": ["math.sin(q.anim_time*90*2)*2+22.5", 0, 0],
					"position": ["math.clamp(math.sin(q.anim_time*90*4)*0.6,-0.5,0)+math.clamp(math.sin(q.anim_time*90*4)*0.6,0,0.5)", "(math.clamp(math.sin(q.anim_time*90*4)*2,-1.5,0)+math.clamp(math.sin(q.anim_time*90*4)*2,0,1.5)+math.sin(q.anim_time*90*4)*10)*0.1", "math.sin(q.anim_time*90*2)*1"]
				},
				"antenna_right": {
					"rotation": ["math.sin(q.anim_time*90*2)*5+5", 0, 0]
				},
				"antenna_right2": {
					"rotation": ["math.sin(q.anim_time*90*2+45)*5+5", 0, 0]
				},
				"antenna_left": {
					"rotation": ["math.sin(q.anim_time*90*2)*5+5", 0, 0]
				},
				"antenna_left2": {
					"rotation": ["math.sin(q.anim_time*90*2+45)*5+5", 0, 0]
				},
				"wing_right": {
					"rotation": [0, "45-30*(math.sin(q.anim_time*90*4*6)*1+1)", 0]
				},
				"wing_right2": {
					"rotation": [0, "-4*(math.sin(q.anim_time*90*4*6-22.5)*1)+5", 0]
				},
				"wing_left": {
					"rotation": [0, "-45+30*(math.sin(q.anim_time*90*4*6)*1+1)", 0]
				},
				"wing_left2": {
					"rotation": [0, "4*(math.sin(q.anim_time*90*4*6-22.5)*1)-5", 0]
				},
				"abdomen": {
					"rotation": [-25, 0, 0]
				},
				"arm_right": {
					"rotation": [-30, -10, "-22.5-math.sin(q.anim_time*90*4)*2-math.clamp(math.sin(q.anim_time*90*4)*1,0,5)"]
				},
				"arm_left": {
					"rotation": [-30, 10, "22.5+math.sin(q.anim_time*90*4)*2+math.clamp(math.sin(q.anim_time*90*4)*1,0,5)"]
				},
				"leg_right": {
					"rotation": ["math.sin(q.anim_time*90*2-45)*5+62", -50, 2]
				},
				"leg_right2": {
					"rotation": ["-4.3395+math.sin(q.anim_time*90*2-45)*5", -25, -62]
				},
				"leg_left": {
					"rotation": ["math.sin(q.anim_time*90*2-45)*5+62", 50, -2]
				},
				"leg_left2": {
					"rotation": ["-4.3395+math.sin(q.anim_time*90*2-45)*5", 25, 62]
				},
				"head_AI": {
					"rotation": [-22.5, 0, 0]
				},
				"head": {
					"rotation": [7.5, 0, 0]
				},
				"arm_right2": {
					"rotation": [45, -60, -60]
				},
				"arm_left2": {
					"rotation": [45, 60, 60]
				}
			}
		},
		"animation.beedrill.air_fly": {
			"loop": true,
			"bones": {
				"body": {
					"rotation": ["math.sin(q.anim_time*90*2)*2+45", 0, 0],
					"position": ["math.clamp(math.sin(q.anim_time*90*4*0.5)*0.6,-0.5,0)+math.clamp(math.sin(q.anim_time*90*4*0.5)*0.6,0,0.5)", "(math.clamp(math.sin(q.anim_time*90*4*2)*2,-1.5,0)+math.clamp(math.sin(q.anim_time*90*4*2)*2,0,1.5)+math.sin(q.anim_time*90*4*2)*2)*0.1", "math.sin(q.anim_time*90*2)*1"]
				},
				"antenna_right": {
					"rotation": ["math.sin(q.anim_time*90*4)*5+22.5", 0, 0]
				},
				"antenna_right2": {
					"rotation": ["math.sin(q.anim_time*90*2+45)*5+5", 0, 0]
				},
				"antenna_left": {
					"rotation": ["math.sin(q.anim_time*90*4)*5+22.5", 0, 0]
				},
				"antenna_left2": {
					"rotation": ["math.sin(q.anim_time*90*2+45)*5+5", 0, 0]
				},
				"wing_right": {
					"rotation": [0, "15-10*(math.sin(q.anim_time*90*4*6)*1+1)", 0]
				},
				"wing_right2": {
					"rotation": [0, "-4*(math.sin(q.anim_time*90*4*6-22.5)*1)+5", 0]
				},
				"wing_left": {
					"rotation": [0, "-15+10*(math.sin(q.anim_time*90*4*6)*1+1)", 0]
				},
				"wing_left2": {
					"rotation": [0, "4*(math.sin(q.anim_time*90*4*6-22.5)*1)-5", 0]
				},
				"abdomen": {
					"rotation": [25, 0, 0]
				},
				"arm_right": {
					"rotation": [-35, -30, "-44-math.sin(q.anim_time*90*4)*2-math.clamp(math.sin(q.anim_time*90*4)*1,0,5)"]
				},
				"arm_left": {
					"rotation": [-35, 30, "44+math.sin(q.anim_time*90*4)*2+math.clamp(math.sin(q.anim_time*90*4)*1,0,5)"]
				},
				"leg_right": {
					"rotation": ["math.sin(q.anim_time*90*2-45)*5+70", -16, -17]
				},
				"leg_right2": {
					"rotation": ["-4.3395+math.sin(q.anim_time*90*2-45)*5", -5, -62]
				},
				"leg_left": {
					"rotation": ["math.sin(q.anim_time*90*2-45)*5+70", 16, 17]
				},
				"leg_left2": {
					"rotation": ["-4.3395+math.sin(q.anim_time*90*2-45)*5", 5, 62]
				},
				"head": {
					"rotation": ["-math.sin(q.anim_time*90*2)*2-15", 0, 0],
					"position": [0, 0, -1]
				},
				"head_AI": {
					"rotation": [-22.5, 0, 0]
				},
				"arm_right2": {
					"rotation": [45, -60, -60]
				},
				"arm_left2": {
					"rotation": [45, 60, 60]
				}
			}
		}
	}
}