{
  "variants": {
    "powered=false": {
      "model": "pokemoncobbled:block/apricorn_pressure_plate"
    },
    "powered=true": {
      "model": "pokemoncobbled:block/apricorn_pressure_plate_down"
    }
  }
}