{
    "variants": {
      "age=0,facing=east": {
        "model": "pokemoncobbled:block/apricorn_stage_0",
        "y": 270
      },
      "age=0,facing=north": {
        "model": "pokemoncobbled:block/apricorn_stage_0",
        "y": 180
      },
      "age=0,facing=south": {
        "model": "pokemoncobbled:block/apricorn_stage_0"
      },
      "age=0,facing=west": {
        "model": "pokemoncobbled:block/apricorn_stage_0",
        "y": 90
      },
      "age=1,facing=east": {
        "model": "pokemoncobbled:block/apricorn_stage_1",
        "y": 270
      },
      "age=1,facing=north": {
        "model": "pokemoncobbled:block/apricorn_stage_1",
        "y": 180
      },
      "age=1,facing=south": {
        "model": "pokemoncobbled:block/apricorn_stage_1"
      },
      "age=1,facing=west": {
        "model": "pokemoncobbled:block/apricorn_stage_1",
        "y": 90
      },
      "age=2,facing=east": {
        "model": "pokemoncobbled:block/blue_apricorn",
        "y": 270
      },
      "age=2,facing=north": {
        "model": "pokemoncobbled:block/blue_apricorn",
        "y": 180
      },
      "age=2,facing=south": {
        "model": "pokemoncobbled:block/blue_apricorn"
      },
      "age=2,facing=west": {
        "model": "pokemoncobbled:block/blue_apricorn",
        "y": 90
      }
    }
  }