{
  "variants": {
    "axis=x": {
      "model": "pokemoncobbled:block/stripped_apricorn_log_horizontal",
      "x": 90,
      "y": 90
    },
    "axis=y": {
      "model": "pokemoncobbled:block/stripped_apricorn_log"
    },
    "axis=z": {
      "model": "pokemoncobbled:block/stripped_apricorn_log_horizontal",
      "x": 90
    }
  }
}