{
  "parent": "minecraft:block/stairs",
  "textures": {
    "bottom": "pokemoncobbled:blocks/apricorn_planks",
    "top": "pokemoncobbled:blocks/apricorn_planks",
    "side": "pokemoncobbled:blocks/apricorn_planks"
  }
}
