{
  "texture_size": [128, 128],
  "textures": {
    "0": "pokemoncobbled:blocks/pc",
    "particle": "pokemoncobbled:blocks/pc"
  },
  "elements": [
    {
      "from": [0, 18, 0],
      "to": [16, 19, 16],
      "rotation": {"angle": 0, "axis": "y", "origin": [8.33333, 19.33333, 8.5]},
      "faces": {
        "north": {"uv": [2, 5.875, 4, 6], "texture": "#0"},
        "east": {"uv": [0, 5.875, 2, 6], "texture": "#0"},
        "south": {"uv": [6, 5.875, 8, 6], "texture": "#0"},
        "west": {"uv": [4, 5.875, 6, 6], "texture": "#0"},
        "up": {"uv": [4, 5.875, 2, 3.875], "texture": "#0"},
        "down": {"uv": [6, 3.875, 4, 5.875], "texture": "#0"}
      }
    },
    {
      "from": [0, 0, 3],
      "to": [16, 18, 16],
      "rotation": {"angle": 0, "axis": "y", "origin": [8.33333, 19.33333, 8.5]},
      "faces": {
        "north": {"uv": [1.625, 1.625, 3.625, 3.875], "texture": "#0"},
        "east": {"uv": [0, 1.625, 1.625, 3.875], "texture": "#0"},
        "south": {"uv": [5.25, 1.625, 7.25, 3.875], "texture": "#0"},
        "west": {"uv": [3.625, 1.625, 5.25, 3.875], "texture": "#0"},
        "up": {"uv": [3.625, 1.625, 1.625, 0], "texture": "#0"},
        "down": {"uv": [5.625, 0, 3.625, 1.625], "texture": "#0"}
      }
    },
    {
      "from": [2.5, 19, 14],
      "to": [13.5, 31, 16],
      "rotation": {"angle": 0, "axis": "y", "origin": [8.33333, 19.33333, 8.5]},
      "faces": {
        "north": {"uv": [6.25, 4.125, 7.625, 5.625], "texture": "#0"},
        "east": {"uv": [6, 4.125, 6.25, 5.625], "texture": "#0"},
        "south": {"uv": [7.875, 4.125, 9.25, 5.625], "texture": "#0"},
        "west": {"uv": [7.625, 4.125, 7.875, 5.625], "texture": "#0"},
        "up": {"uv": [7.625, 4.125, 6.25, 3.875], "texture": "#0"},
        "down": {"uv": [9, 3.875, 7.625, 4.125], "texture": "#0"}
      }
    },
    {
      "from": [1, 19, 6],
      "to": [15, 31, 14],
      "rotation": {"angle": 0, "axis": "y", "origin": [8.33333, 19.33333, 8.5]},
      "faces": {
        "north": {"uv": [1, 7, 2.75, 8.5], "texture": "#0"},
        "east": {"uv": [0, 7, 1, 8.5], "texture": "#0"},
        "south": {"uv": [3.75, 7, 5.5, 8.5], "texture": "#0"},
        "west": {"uv": [2.75, 7, 3.75, 8.5], "texture": "#0"},
        "up": {"uv": [2.75, 7, 1, 6], "texture": "#0"},
        "down": {"uv": [4.5, 6, 2.75, 7], "texture": "#0"}
      }
    },
    {
      "from": [9.5, 19.25, 5.25],
      "to": [10.5, 19.25, 6.25],
      "rotation": {"angle": 0, "axis": "y", "origin": [8.33333, 19.33333, 8.5]},
      "faces": {
        "north": {"uv": [0.125, 0.125, 0.25, 0.125], "texture": "#0"},
        "east": {"uv": [0, 0.125, 0.125, 0.125], "texture": "#0"},
        "south": {"uv": [0.375, 0.125, 0.5, 0.125], "texture": "#0"},
        "west": {"uv": [0.25, 0.125, 0.375, 0.125], "texture": "#0"},
        "up": {"uv": [0.25, 0.125, 0.125, 0], "texture": "#0"},
        "down": {"uv": [0.375, 0, 0.25, 0.125], "texture": "#0"}
      }
    },
    {
      "from": [2.5, 18.75, 0.25],
      "to": [13.5, 19.75, 5.25],
      "rotation": {"angle": 0, "axis": "y", "origin": [8.33333, 19.33333, 8.5]},
      "faces": {
        "north": {"uv": [6.25, 0.625, 7.625, 0.75], "texture": "#0"},
        "east": {"uv": [5.625, 0.625, 6.25, 0.75], "texture": "#0"},
        "south": {"uv": [8.25, 0.625, 9.625, 0.75], "texture": "#0"},
        "west": {"uv": [7.625, 0.625, 8.25, 0.75], "texture": "#0"},
        "up": {"uv": [7.625, 0.625, 6.25, 0], "texture": "#0"},
        "down": {"uv": [9, 0, 7.625, 0.625], "texture": "#0"}
      }
    }
  ]
}