{
    "type": "minecraft:block",
    "pools": [{
        "rolls": 1,
        "entries": [{
            "type": "minecraft:item",
            "name": "pokemoncobbled:apricorn_planks"
        }],
        "conditions": [{
            "condition": "minecraft:survives_explosion"
        }]
    }]
}