{
	"format_version": "1.12.0",
	"minecraft:geometry": [
		{
			"description": {
				"identifier": "geometry.eevee_female",
				"texture_width": 64,
				"texture_height": 64,
				"visible_bounds_width": 3,
				"visible_bounds_height": 2.5,
				"visible_bounds_offset": [0, 0.75, 0]
			},
			"bones": [
				{
					"name": "eevee",
					"pivot": [0, 0, 0]
				},
				{
					"name": "body",
					"parent": "eevee",
					"pivot": [0, 8.375, -2.125],
					"cubes": [
						{"origin": [-3.5, 5, -6], "size": [7, 6, 12], "uv": [0, 0]},
						{"origin": [-5, 5.75, -8.75], "size": [10, 6, 9], "pivot": [0.5, 8.75, -4.25], "rotation": [30, 0, 0], "uv": [26, 49]}
					]
				},
				{
					"name": "head",
					"parent": "body",
					"pivot": [0, 10.5, -5],
					"cubes": [
						{"origin": [-4, 9, -9.25], "size": [8, 8, 7], "uv": [31, 11]},
						{"origin": [-3, 16.75, -6.25], "size": [6, 2, 0], "pivot": [0, 17.75, -6], "rotation": [-15, 0, 0], "uv": [52, 7]},
						{"origin": [-0.5, 11, -9.25], "size": [1, 1, 0], "inflate": 0.02, "uv": [62, 5], "mirror": true},
						{"origin": [-1, 9.75, -9.25], "size": [2, 1, 0], "inflate": 0.02, "uv": [60, 3], "mirror": true}
					]
				},
				{
					"name": "eyes",
					"parent": "head",
					"pivot": [0, 13.25, -9.3],
					"cubes": [
						{"origin": [-3.5, 11.75, -9.25], "size": [2, 3, 0], "inflate": 0.02, "uv": [60, 0]},
						{"origin": [1.5, 11.75, -9.25], "size": [2, 3, 0], "inflate": 0.02, "uv": [60, 0], "mirror": true}
					]
				},
				{
					"name": "eyelids",
					"parent": "eyes",
					"pivot": [0, 13.25, -9.3],
					"cubes": [
						{"origin": [-3.5, 11.75, -9.15], "size": [2, 3, 1], "inflate": 0.04, "uv": [1, 43]},
						{"origin": [1.5, 11.75, -9.15], "size": [2, 3, 1], "inflate": 0.04, "uv": [1, 43], "mirror": true}
					]
				},
				{
					"name": "ear_right",
					"parent": "head",
					"pivot": [-3.5, 17, -5.5],
					"rotation": [-10, 15, -32.5],
					"cubes": [
						{"origin": [-6, 16, -5.5], "size": [4, 8, 0], "inflate": 0.02, "uv": [0, 18], "mirror": true}
					]
				},
				{
					"name": "ear_left",
					"parent": "head",
					"pivot": [3.5, 17, -5.5],
					"rotation": [-10, -15, 32.5],
					"cubes": [
						{"origin": [2, 16, -5.5], "size": [4, 8, 0], "inflate": 0.02, "uv": [0, 18]}
					]
				},
				{
					"name": "tail",
					"parent": "body",
					"pivot": [0, 9.5, 6],
					"rotation": [45, 0, 0],
					"cubes": [
						{"origin": [-4, 6.5, 5], "size": [8, 7, 10], "uv": [26, 26]}
					]
				},
				{
					"name": "leg_front_right1",
					"parent": "body",
					"pivot": [-2.5, 6.75, -3.75],
					"rotation": [10, 0, 0],
					"cubes": [
						{"origin": [-4, 3.75, -5.25], "size": [3, 5, 3], "inflate": 0.02, "uv": [0, 56], "mirror": true}
					]
				},
				{
					"name": "leg_front_right2",
					"parent": "leg_front_right1",
					"pivot": [-2.5, 3.75, -2.75],
					"rotation": [-25, 0, 0],
					"cubes": [
						{"origin": [-4, 1, -5.25], "size": [3, 3, 3], "uv": [0, 50], "mirror": true}
					]
				},
				{
					"name": "leg_front_right3",
					"parent": "leg_front_right2",
					"pivot": [-2.5, 1.5, -3.75],
					"rotation": [15, 0, 0],
					"cubes": [
						{"origin": [-4, -0.5, -5.5], "size": [3, 2, 3], "inflate": 0.02, "uv": [12, 59], "mirror": true}
					]
				},
				{
					"name": "leg_front_left1",
					"parent": "body",
					"pivot": [2.5, 6.75, -3.75],
					"rotation": [10, 0, 0],
					"cubes": [
						{"origin": [1, 3.75, -5.25], "size": [3, 5, 3], "inflate": 0.02, "uv": [0, 56]}
					]
				},
				{
					"name": "leg_front_left2",
					"parent": "leg_front_left1",
					"pivot": [2.5, 3.75, -2.75],
					"rotation": [-25, 0, 0],
					"cubes": [
						{"origin": [1, 1, -5.25], "size": [3, 3, 3], "uv": [0, 50]}
					]
				},
				{
					"name": "leg_front_left3",
					"parent": "leg_front_left2",
					"pivot": [2.5, 1.5, -3.75],
					"rotation": [15, 0, 0],
					"cubes": [
						{"origin": [1, -0.5, -5.5], "size": [3, 2, 3], "inflate": 0.02, "uv": [12, 59]}
					]
				},
				{
					"name": "leg_back_right1",
					"parent": "body",
					"pivot": [-2.5, 8, 3.75],
					"rotation": [10, 0, 0],
					"cubes": [
						{"origin": [-4, 4.5, 1.5], "size": [3, 5, 4], "inflate": 0.02, "uv": [26, 0], "mirror": true}
					]
				},
				{
					"name": "leg_back_right2",
					"parent": "leg_back_right1",
					"pivot": [-2.5, 3.5, 5],
					"rotation": [-25, 0, 0],
					"cubes": [
						{"origin": [-4, 0.75, 3], "size": [3, 4, 3], "uv": [0, 0], "mirror": true}
					]
				},
				{
					"name": "leg_back_right3",
					"parent": "leg_back_right2",
					"pivot": [-2.5, 1, 4.5],
					"rotation": [15, 0, 0],
					"cubes": [
						{"origin": [-4, -0.5, 2.75], "size": [3, 2, 3], "inflate": 0.02, "uv": [0, 7], "mirror": true}
					]
				},
				{
					"name": "leg_back_left1",
					"parent": "body",
					"pivot": [2.5, 8, 3.75],
					"rotation": [10, 0, 0],
					"cubes": [
						{"origin": [1, 4.5, 1.5], "size": [3, 5, 4], "inflate": 0.02, "uv": [26, 0]}
					]
				},
				{
					"name": "leg_back_left2",
					"parent": "leg_back_left1",
					"pivot": [2.5, 3.5, 5],
					"rotation": [-25, 0, 0],
					"cubes": [
						{"origin": [1, 0.75, 3], "size": [3, 4, 3], "uv": [0, 0]}
					]
				},
				{
					"name": "leg_back_left3",
					"parent": "leg_back_left2",
					"pivot": [2.5, 1, 4.5],
					"rotation": [15, 0, 0],
					"cubes": [
						{"origin": [1, -0.5, 2.75], "size": [3, 2, 3], "inflate": 0.02, "uv": [0, 7]}
					]
				}
			]
		}
	]
}