{
	"format_version": "1.12.0",
	"minecraft:geometry": [
		{
			"description": {
				"identifier": "geometry.rattata_female",
				"texture_width": 32,
				"texture_height": 32,
				"visible_bounds_width": 3,
				"visible_bounds_height": 2.5,
				"visible_bounds_offset": [0, 0.75, 0]
			},
			"bones": [
				{
					"name": "rattata",
					"pivot": [0, 0, 0]
				},
				{
					"name": "body",
					"parent": "rattata",
					"pivot": [0, 4, 0],
					"cubes": [
						{"origin": [-2.5, 2, -4], "size": [5, 4, 8], "uv": [0, 0]}
					]
				},
				{
					"name": "head",
					"parent": "body",
					"pivot": [0, 5, -3.75],
					"cubes": [
						{"origin": [-2.5, 3.25, -7.25], "size": [5, 5, 4], "inflate": 0.02, "uv": [0, 12]},
						{"origin": [-1.5, 4, -9.25], "size": [3, 2, 2], "uv": [16, 23]},
						{"origin": [-1, 2.5, -8.75], "size": [2, 2, 0], "inflate": 0.02, "uv": [0, 12]}
					]
				},
				{
					"name": "whisker_right",
					"parent": "head",
					"pivot": [-2.5, 4.5, -5.75],
					"rotation": [0, 15, 5],
					"cubes": [
						{"origin": [-7.25, 4, -5.75], "size": [5, 1, 0], "inflate": 0.02, "pivot": [-4.75, 4.75, -5.25], "rotation": [0, 0, 0], "uv": [19, 30]}
					]
				},
				{
					"name": "whisker_left",
					"parent": "head",
					"pivot": [2.5, 4.5, -5.75],
					"rotation": [0, -15, -5],
					"cubes": [
						{"origin": [2.25, 4, -5.75], "size": [5, 1, 0], "inflate": 0.02, "pivot": [4.75, 4.75, -5.25], "rotation": [0, 0, 0], "uv": [19, 29]}
					]
				},
				{
					"name": "ear_right",
					"parent": "head",
					"pivot": [-2.5, 7.5, -4.5],
					"rotation": [10, 30, 10],
					"cubes": [
						{"origin": [-5.5, 6, -4.25], "size": [4, 4, 0], "inflate": 0.02, "uv": [24, 12], "mirror": true}
					]
				},
				{
					"name": "ear_left",
					"parent": "head",
					"pivot": [2.5, 7.5, -4.5],
					"rotation": [10, -30, -10],
					"cubes": [
						{"origin": [1.5, 6, -4.25], "size": [4, 4, 0], "inflate": 0.02, "uv": [24, 12]}
					]
				},
				{
					"name": "eyes",
					"parent": "head",
					"pivot": [0, 6.25, -6],
					"cubes": [
						{"origin": [-2.525, 5.25, -7], "size": [0, 2, 2], "inflate": 0.02, "pivot": [-2.525, 6.25, -6], "rotation": [2.5, 0, 0], "uv": [0, 12], "mirror": true},
						{"origin": [2.525, 5.25, -7], "size": [0, 2, 2], "inflate": 0.02, "pivot": [2.525, 6.25, -6], "rotation": [2.5, 0, 0], "uv": [0, 12]}
					]
				},
				{
					"name": "eyelids",
					"parent": "eyes",
					"pivot": [0, 6.25, -6],
					"cubes": [
						{"origin": [-2.425, 5.25, -7], "size": [1, 2, 2], "inflate": 0.04, "pivot": [-2.525, 6.25, -6], "rotation": [2.5, 0, 0], "uv": [0, 27], "mirror": true},
						{"origin": [1.425, 5.25, -7], "size": [1, 2, 2], "inflate": 0.04, "pivot": [2.525, 6.25, -6], "rotation": [2.5, 0, 0], "uv": [0, 27]}
					]
				},
				{
					"name": "tail",
					"parent": "body",
					"pivot": [0, 4, 4],
					"cubes": [
						{"origin": [0, 4, 4], "size": [0, 1, 3], "inflate": 0.02, "uv": [0, 18]}
					]
				},
				{
					"name": "tail2",
					"parent": "tail",
					"pivot": [0, 4.25, 7],
					"cubes": [
						{"origin": [0, 4, 7], "size": [0, 1, 3], "inflate": 0.02, "uv": [0, 19]}
					]
				},
				{
					"name": "tail3",
					"parent": "tail2",
					"pivot": [0, 4.25, 10],
					"cubes": [
						{"origin": [0, 4, 10], "size": [0, 4, 5], "inflate": 0.02, "uv": [14, 7]}
					]
				},
				{
					"name": "leg_front_right",
					"parent": "body",
					"pivot": [-1.75, 4, -2.5],
					"cubes": [
						{"origin": [-2.75, 0, -3.5], "size": [2, 5, 2], "uv": [8, 21]}
					]
				},
				{
					"name": "leg_front_left",
					"parent": "body",
					"pivot": [1.75, 4, -2.5],
					"cubes": [
						{"origin": [0.75, 0, -3.5], "size": [2, 5, 2], "uv": [18, 16]}
					]
				},
				{
					"name": "leg_back_right",
					"parent": "body",
					"pivot": [-1.75, 4, 2.75],
					"cubes": [
						{"origin": [-2.75, 0, 1.75], "size": [2, 5, 2], "uv": [18, 0]}
					]
				},
				{
					"name": "leg_back_left",
					"parent": "body",
					"pivot": [1.75, 4, 2.75],
					"cubes": [
						{"origin": [0.75, 0, 1.75], "size": [2, 5, 2], "uv": [0, 0]}
					]
				}
			]
		}
	]
}