{
    "type": "minecraft:crafting_shapeless",
    "ingredients": [{
        "item": "pokemoncobbled:apricorn_log"
    }],
    "result": {
        "item": "pokemoncobbled:apricorn_planks",
        "count": 4
    }
}