{
  "name": "beedrill",
  "nationalPokedexNumber": 15,
  "primaryType": "bug",
  "secondaryType": "poison",
  "maleRatio": 0.5,
  "baseStats": {
    "hp": 65,
    "attack": 80,
    "defence": 40,
    "specialAttack": 45,
    "specialDefence": 80,
    "speed": 75
  },
  "levelUpMoves": {
    "1": ["bugbite", "furyattack", "harden", "poisonsting", "stringshot"],
    "11": [ "furycutter" ],
    "14": [ "laserfocus" ],
    "20": [ "focusenergy" ],
    "23": [ "venoshock" ],
    "26": [ "assurance" ],
    "29": [ "toxicspikes" ],
    "32": [ "pinmissile" ],
    "35": [ "poisonjab" ],
    "38": [ "agility" ],
    "41": [ "endeavor" ],
    "44": [ "fellstinger" ]
  },
  "catchRate": 45,
  "experienceGroup": "mediumslow",
  "baseExperienceYield": 64,
  "baseScale": 0.8,
  "abilities": [
    "swarm",
    "h:sniper"
  ],
  "hitbox": {
    "width": 0.6,
    "height": 0.8,
    "fixed": false
  }
}