{
  "name": "charmander",
  "nationalPokedexNumber": 4,
  "primaryType": "fire",
  "maleRatio": 0.875,
  "behaviour": {
    "resting": {
      "canSleep": true,
      "willSleepOnBed": true,
      "depth": "normal",
      "light": "0-2"
    }
  },
  "baseStats": {
    "hp": 39,
    "attack": 52,
    "defence": 43,
    "special_attack": 60,
    "special_defence": 50,
    "speed": 65
  },
  "levelUpMoves": {
    "1": [ "scratch", "growl" ],
    "4": [ "ember" ],
    "8": [ "smokescreen" ],
    "12": [ "dragonbreath" ],
    "17": [ "firefang" ],
    "20": [ "slash" ],
    "24": [ "flamethrower" ],
    "28": [ "scaryface" ],
    "32": [ "firespin" ],
    "36": [ "inferno" ],
    "40": [ "flareblitz" ]
  },
  "catchRate": 45,
  "experienceGroup": "mediumslow",
  "baseExperienceYield": 62,
  "baseScale": "0.7",
  "abilities": [
    "blaze",
    "h:solarpower"
  ],
  "hitbox": {
    "width": 0.7,
    "height": 1.15,
    "fixed": false
  },
  "shoulderMountable": true,
  "shoulderEffect": [
    {
      "type": "light_source",
      "Test": "Baguette"
    }
  ],
  "evolutions": [
    {
      "variant": "level_up",
      "levels": 16,
      "id": "charmander_level",
      "result": "Charmeleon",
      "optional": true,
      "consumeHeldItem": false,
      "requirements": [],
      "learnableMoves": []
    }
  ]
}