{
  "name": "ivysaur",
  "nationalPokedexNumber": 2,
  "primaryType": "grass",
  "secondaryType": "poison",
  "maleRatio": 0.875,
  "baseStats": {
    "hp": 60,
    "attack": 62,
    "defence": 63,
    "special_attack": 80,
    "special_defence": 80,
    "speed": 60
  },
  "levelUpMoves": {
    "1": ["tackle", "growl", "vinewhip", "growth"],
    "9": [ "leechseed" ],
    "12": [ "razorleaf" ],
    "15": [ "poisonpowder", "sleeppowder" ],
    "20": [ "seedbomb" ],
    "25": [ "takedown" ],
    "30": [ "sweetscent" ],
    "35": [ "synthesis" ],
    "40": [ "worryseed" ],
    "45": [ "doubleedge" ],
    "50": [ "solarbeam" ]
  },
  "catchRate": 45,
  "experienceGroup": "mediumslow",
  "baseExperienceYield": 142,
  "baseScale": 1,
  "abilities": [
    "overgrow",
    "h:chlorophyll"
  ],
  "hitbox": {
    "width": 0.7,
    "height": 0.8,
    "fixed": false
  },
  "evolutions": [
    {
      "variant": "level_up",
      "levels": 32,
      "id": "ivysaur_level",
      "result": "venusaur",
      "optional": true,
      "consumeHeldItem": false,
      "requirements": [],
      "learnableMoves": [
        "Petal Blizzard"
      ]
    }
  ],
  "preEvolution": "Bulbasaur"
}