{
  "name": "wartortle",
  "nationalPokedexNumber": 8,
  "primaryType": "water",
  "maleRatio": 0.875,
  "baseStats": {
    "hp": 59,
    "attack": 63,
    "defence": 80,
    "special_attack": 865,
    "special_defence": 80,
    "speed": 58
  },
  "features": [
    "sunglasses"
  ],
  "levelUpMoves": {
    "1": [ "tackle", "tailwhip", "watergun", "withdrawal"],
    "9": [ "rapidspin" ],
    "12": [ "bite" ],
    "15": [ "waterpulse" ],
    "20": [ "protect" ],
    "25": [ "raindance" ],
    "30": [ "aquatail" ],
    "35": [ "shellsmash" ],
    "40": [ "irondefense" ],
    "45": [ "hydropump" ],
    "50": [ "skullbash" ]
  },
  "catchRate": 45,
  "experienceGroup": "mediumslow",
  "baseExperienceYield": 142,
  "baseScale": 0.7,
  "abilities": [
    "torrent",
    "h:raindish"
  ],
  "hitbox": {
    "width": 0.6,
    "height": 1.3,
    "fixed": false
  },
  "evolutions": [
    {
      "variant": "level_up",
      "levels": 36,
      "id": "wartortle_level",
      "result": "Blastoise",
      "optional": true,
      "consumeHeldItem": false,
      "requirements": [],
      "learnableMoves": ["Flash Cannon"]
    }
  ],
  "preEvolution": "Squirtle"
}