{
  "animator": "butterfree",
  "model": "pokemoncobbled:bedrock/models/butterfree_male.geo.json",
  "texture": "pokemoncobbled:textures/pokemon/butterfree.png",
  "variations": [
    {
      "aspects": ["shiny"],
      "texture": "pokemoncobbled:textures/pokemon/butterfree_shiny.png"
    },
    {
      "aspects": ["female"],
      "model": "pokemoncobbled:bedrock/models/butterfree_female.geo.json"
    }
  ]
}