{
  "name": "absorb",
  "type": "Grass",
  "damageCategory": "Special",
  "target": "normal",
  "power": 20,
  "accuracy": 100,
  "pp": 25,
  "priority": 0,
  "flags": {
    "protect": 1,
    "mirror": 1,
    "heal": 1
  }
}