{
  "name": "aromatherapy",
  "type": "Grass",
  "damageCategory": "Status",
  "target": "allyTeam",
  "power": 0,
  "accuracy": 100.0,
  "pp": 5,
  "priority": 0,
  "flags": {
    "snatch": 1,
    "distance": 1
  }
}