{
  "name": "behemothblade",
  "type": "Steel",
  "damageCategory": "Physical",
  "target": "normal",
  "power": 100,
  "accuracy": 100,
  "pp": 5,
  "priority": 0,
  "flags": {
    "contact": 1,
    "protect": 1,
    "mirror": 1
  }
}