{
  "name": "bouncybubble",
  "type": "Water",
  "damageCategory": "Special",
  "target": "normal",
  "power": 60,
  "accuracy": 100,
  "pp": 20,
  "priority": 0,
  "flags": {
    "protect": 1,
    "heal": 1
  }
}