{
  "name": "bounce",
  "type": "Flying",
  "damageCategory": "Physical",
  "target": "any",
  "power": 85,
  "accuracy": 85,
  "pp": 5,
  "priority": 0,
  "effectChance": 30,
  "effectStatus": "par",
  "flags": {
    "contact": 1,
    "charge": 1,
    "protect": 1,
    "mirror": 1,
    "gravity": 1,
    "distance": 1
  }
}