{
  "name": "burningjealousy",
  "type": "Fire",
  "damageCategory": "Special",
  "target": "allAdjacentFoes",
  "power": 70,
  "accuracy": 100,
  "pp": 5,
  "priority": 0,
  "effectChance": 100,
  "flags": {
    "protect": 1,
    "mirror": 1
  }
}