{
  "name": "coaching",
  "type": "Fighting",
  "damageCategory": "Status",
  "target": "adjacentAlly",
  "power": 0,
  "accuracy": 100.0,
  "pp": 10,
  "priority": 0,
  "flags": {
    "bypasssub": 1,
    "allyanim": 1
  }
}