{
  "name": "coreenforcer",
  "type": "Dragon",
  "damageCategory": "Special",
  "target": "allAdjacentFoes",
  "power": 100,
  "accuracy": 100,
  "pp": 10,
  "priority": 0,
  "flags": {
    "protect": 1,
    "mirror": 1
  }
}