{
  "name": "cut",
  "type": "Normal",
  "damageCategory": "Physical",
  "target": "normal",
  "power": 50,
  "accuracy": 95,
  "pp": 30,
  "priority": 0,
  "flags": {
    "contact": 1,
    "protect": 1,
    "mirror": 1
  }
}