{
  "name": "dazzlinggleam",
  "type": "Fairy",
  "damageCategory": "Special",
  "target": "allAdjacentFoes",
  "power": 80,
  "accuracy": 100,
  "pp": 10,
  "priority": 0,
  "flags": {
    "protect": 1,
    "mirror": 1
  }
}