{
  "name": "dragonpulse",
  "type": "Dragon",
  "damageCategory": "Special",
  "target": "any",
  "power": 85,
  "accuracy": 100,
  "pp": 10,
  "priority": 0,
  "flags": {
    "protect": 1,
    "pulse": 1,
    "mirror": 1,
    "distance": 1
  }
}