{
  "name": "dynamicpunch",
  "type": "Fighting",
  "damageCategory": "Physical",
  "target": "normal",
  "power": 100,
  "accuracy": 50,
  "pp": 5,
  "priority": 0,
  "effectChance": 100,
  "flags": {
    "contact": 1,
    "protect": 1,
    "mirror": 1,
    "punch": 1
  }
}