{
  "name": "focuspunch",
  "type": "Fighting",
  "damageCategory": "Physical",
  "target": "normal",
  "power": 150,
  "accuracy": 100,
  "pp": 20,
  "priority": -3,
  "flags": {
    "contact": 1,
    "protect": 1,
    "punch": 1
  }
}