{
  "name": "focusblast",
  "type": "Fighting",
  "damageCategory": "Special",
  "target": "normal",
  "power": 120,
  "accuracy": 70,
  "pp": 5,
  "priority": 0,
  "effectChance": 10,
  "flags": {
    "bullet": 1,
    "protect": 1,
    "mirror": 1
  }
}