{
  "name": "frostbreath",
  "type": "Ice",
  "damageCategory": "Special",
  "target": "normal",
  "power": 60,
  "accuracy": 90,
  "pp": 10,
  "priority": 0,
  "flags": {
    "protect": 1,
    "mirror": 1
  }
}