{
  "name": "gigaimpact",
  "type": "Normal",
  "damageCategory": "Physical",
  "target": "normal",
  "power": 150,
  "accuracy": 90,
  "pp": 5,
  "priority": 0,
  "flags": {
    "contact": 1,
    "recharge": 1,
    "protect": 1,
    "mirror": 1
  }
}