{
  "name": "glaciate",
  "type": "Ice",
  "damageCategory": "Special",
  "target": "allAdjacentFoes",
  "power": 65,
  "accuracy": 95,
  "pp": 10,
  "priority": 0,
  "effectChance": 100,
  "flags": {
    "protect": 1,
    "mirror": 1
  }
}