{
  "name": "heatcrash",
  "type": "Fire",
  "damageCategory": "Physical",
  "target": "normal",
  "power": 0,
  "accuracy": 100,
  "pp": 10,
  "priority": 0,
  "flags": {
    "contact": 1,
    "protect": 1,
    "mirror": 1,
    "nonsky": 1
  }
}