{
  "name": "iceball",
  "type": "Ice",
  "damageCategory": "Physical",
  "target": "normal",
  "power": 30,
  "accuracy": 90,
  "pp": 20,
  "priority": 0,
  "flags": {
    "bullet": 1,
    "contact": 1,
    "protect": 1,
    "mirror": 1
  }
}