{
  "name": "lockon",
  "type": "Normal",
  "damageCategory": "Status",
  "target": "normal",
  "power": 0,
  "accuracy": 100.0,
  "pp": 5,
  "priority": 0,
  "flags": {
    "protect": 1,
    "mirror": 1
  }
}