{
  "name": "lowkick",
  "type": "Fighting",
  "damageCategory": "Physical",
  "target": "normal",
  "power": 0,
  "accuracy": 100,
  "pp": 20,
  "priority": 0,
  "flags": {
    "contact": 1,
    "protect": 1,
    "mirror": 1
  }
}