{
  "name": "magneticflux",
  "type": "Electric",
  "damageCategory": "Status",
  "target": "allySide",
  "power": 0,
  "accuracy": 100.0,
  "pp": 20,
  "priority": 0,
  "flags": {
    "snatch": 1,
    "distance": 1,
    "bypasssub": 1
  }
}