{
  "name": "meteorassault",
  "type": "Fighting",
  "damageCategory": "Physical",
  "target": "normal",
  "power": 150,
  "accuracy": 100,
  "pp": 5,
  "priority": 0,
  "flags": {
    "protect": 1,
    "recharge": 1,
    "mirror": 1
  }
}