{
  "name": "moonblast",
  "type": "Fairy",
  "damageCategory": "Special",
  "target": "normal",
  "power": 95,
  "accuracy": 100,
  "pp": 15,
  "priority": 0,
  "effectChance": 30,
  "flags": {
    "protect": 1,
    "mirror": 1
  }
}