{
  "name": "mudshot",
  "type": "Ground",
  "damageCategory": "Special",
  "target": "normal",
  "power": 55,
  "accuracy": 95,
  "pp": 15,
  "priority": 0,
  "effectChance": 100,
  "flags": {
    "protect": 1,
    "mirror": 1
  }
}