{
  "name": "paleowave",
  "type": "Rock",
  "damageCategory": "Special",
  "target": "normal",
  "power": 85,
  "accuracy": 100,
  "pp": 15,
  "priority": 0,
  "effectChance": 20,
  "flags": {
    "protect": 1,
    "mirror": 1
  }
}