{
  "name": "powder",
  "type": "Bug",
  "damageCategory": "Status",
  "target": "normal",
  "power": 0,
  "accuracy": 100,
  "pp": 20,
  "priority": 1,
  "flags": {
    "powder": 1,
    "protect": 1,
    "reflectable": 1,
    "mirror": 1,
    "bypasssub": 1
  }
}