{
  "name": "psybeam",
  "type": "Psychic",
  "damageCategory": "Special",
  "target": "normal",
  "power": 65,
  "accuracy": 100,
  "pp": 20,
  "priority": 0,
  "effectChance": 10,
  "flags": {
    "protect": 1,
    "mirror": 1
  }
}