{
  "name": "rollingkick",
  "type": "Fighting",
  "damageCategory": "Physical",
  "target": "normal",
  "power": 60,
  "accuracy": 85,
  "pp": 15,
  "priority": 0,
  "effectChance": 30,
  "flags": {
    "contact": 1,
    "protect": 1,
    "mirror": 1
  }
}