{
  "name": "skyattack",
  "type": "Flying",
  "damageCategory": "Physical",
  "target": "any",
  "power": 140,
  "accuracy": 90,
  "pp": 5,
  "priority": 0,
  "critRatio": 2,
  "effectChance": 30,
  "flags": {
    "charge": 1,
    "protect": 1,
    "mirror": 1,
    "distance": 1
  }
}