{
  "name": "swift",
  "type": "Normal",
  "damageCategory": "Special",
  "target": "allAdjacentFoes",
  "power": 60,
  "accuracy": 100.0,
  "pp": 20,
  "priority": 0,
  "flags": {
    "protect": 1,
    "mirror": 1
  }
}