{
  "name": "synchronoise",
  "type": "Psychic",
  "damageCategory": "Special",
  "target": "allAdjacent",
  "power": 120,
  "accuracy": 100,
  "pp": 10,
  "priority": 0,
  "flags": {
    "protect": 1,
    "mirror": 1
  }
}