{
  "name": "thundercage",
  "type": "Electric",
  "damageCategory": "Special",
  "target": "normal",
  "power": 80,
  "accuracy": 90,
  "pp": 15,
  "priority": 0,
  "flags": {
    "protect": 1,
    "mirror": 1
  }
}