{
  "name": "thundershock",
  "type": "Electric",
  "damageCategory": "Special",
  "target": "normal",
  "power": 40,
  "accuracy": 100,
  "pp": 30,
  "priority": 0,
  "effectChance": 10,
  "effectStatus": "par",
  "flags": {
    "protect": 1,
    "mirror": 1
  }
}