{
  "name": "wingattack",
  "type": "Flying",
  "damageCategory": "Physical",
  "target": "any",
  "power": 60,
  "accuracy": 100,
  "pp": 35,
  "priority": 0,
  "flags": {
    "contact": 1,
    "protect": 1,
    "mirror": 1,
    "distance": 1
  }
}