{
  "name": "zippyzap",
  "type": "Electric",
  "damageCategory": "Physical",
  "target": "normal",
  "power": 80,
  "accuracy": 100,
  "pp": 10,
  "priority": 2,
  "effectChance": 100,
  "flags": {
    "contact": 1,
    "protect": 1
  }
}